<?xml version="1.0" encoding="utf-8"?>
<!-- Generator: Adobe Illustrator 18.1.1, SVG Export Plug-In . SVG Version: 6.00 Build 0)  -->
<svg version="1.1" id="Laag_1" xmlns="http://www.w3.org/2000/svg" xmlns:xlink="http://www.w3.org/1999/xlink" x="0px" y="0px"
	 viewBox="0 0 400 300" enable-background="new 0 0 400 300" xml:space="preserve">
<g>
	<polygon fill="#BBCC00" points="268.9,179.2 314.3,179.2 314.3,133.7 269.1,133.7 	"/>
	<rect x="268.9" y="42.8" fill="#BBCC00" width="45.5" height="45.5"/>
	<path fill="#EE9900" d="M154.6,41.6c-38,0-68.8,30.8-68.8,68.8c0,38,30.8,68.8,68.8,68.8h68.8v-68.8
		C223.4,72.4,192.6,41.6,154.6,41.6z M177.5,133.3h-22.9c0,0,0,0,0,0c-12.7,0-22.9-10.3-22.9-22.9c0-12.7,10.3-22.9,22.9-22.9
		c12.7,0,22.9,10.3,22.9,22.9V133.3z"/>
	<g>
		<g>
			<path fill="#00AACC" d="M95.9,237.9h-2.7c-0.3,0-0.5-0.2-0.5-0.5v-0.4c-0.9,0.7-1.9,1.1-3.3,1.1c-2.1,0-4-1-4-4.1v-0.2
				c0-2.8,1.8-4,5.8-4h1.3V229c0-1.3-0.7-1.6-1.8-1.6c-1.5,0-3.2,0.1-3.9,0.2h-0.1c-0.2,0-0.4-0.1-0.4-0.4v-1.9
				c0-0.3,0.2-0.4,0.4-0.5c0.9-0.2,2.5-0.5,4.1-0.5c3.4,0,5.5,1.4,5.5,4.8v8.5C96.4,237.7,96.1,237.9,95.9,237.9z M92.6,232.1h-1.3
				c-1.7,0-2.1,0.6-2.1,1.7v0.2c0,1,0.5,1.2,1.5,1.2c0.7,0,1.4-0.2,1.9-0.5V232.1z"/>
			<path fill="#00AACC" d="M106.8,227.4h-0.2c-1.2,0-2.2,0.4-3.1,0.8v9.3c0,0.3-0.2,0.5-0.5,0.5h-2.9c-0.3,0-0.5-0.2-0.5-0.5v-12.6
				c0-0.3,0.2-0.5,0.5-0.5h2.8c0.3,0,0.5,0.2,0.5,0.5v0.5c0.9-0.7,2.1-1.1,3.2-1.1c0.3,0,0.5,0.2,0.5,0.5v2.2
				C107.1,227.1,107,227.4,106.8,227.4z"/>
			<path fill="#00AACC" d="M117.2,238c-0.7,0.1-1.2,0.2-1.9,0.2c-2.6,0-4-0.7-4-4v-6.9l-1.9-0.3c-0.3,0-0.5-0.2-0.5-0.5v-1.6
				c0-0.3,0.2-0.5,0.5-0.5h1.9v-1.9c0-0.3,0.2-0.4,0.5-0.5l2.9-0.5c0,0,0,0,0.1,0c0.2,0,0.4,0.2,0.4,0.4v2.5h1.9
				c0.3,0,0.5,0.2,0.5,0.5v1.9c0,0.3-0.2,0.5-0.5,0.5h-1.9v6.9c0,0.9,0.1,1.1,0.8,1.1h1.2c0.3,0,0.5,0.1,0.5,0.4v1.8
				C117.7,237.7,117.5,237.9,117.2,238z"/>
			<path fill="#00AACC" d="M131.3,232.4h-7.6v0c0,1.3,0.6,2.6,2.4,2.6c1.5,0,3.6-0.1,4.5-0.2c0,0,0,0,0.1,0c0.3,0,0.4,0.1,0.4,0.4
				v1.8c0,0.4-0.1,0.5-0.5,0.6c-1.5,0.4-2.8,0.6-4.9,0.6c-2.9,0-5.9-1.5-5.9-6.1v-1.7c0-3.8,2.2-6.2,6-6.2c3.9,0,5.8,2.7,5.8,6.2
				v1.4C131.8,232.1,131.6,232.4,131.3,232.4z M128.1,229.9c0-1.8-0.8-2.6-2.1-2.6c-1.3,0-2.2,0.9-2.2,2.6v0.1L128.1,229.9
				L128.1,229.9z"/>
			<path fill="#00AACC" d="M146.3,224.9l-3,10.7c-0.6,2.1-2,2.5-3.4,2.5s-2.8-0.4-3.4-2.5l-3-10.7c0,0,0-0.1,0-0.1
				c0-0.2,0.2-0.4,0.4-0.4h3.1c0.2,0,0.4,0.2,0.5,0.5l2,9.3c0.1,0.4,0.2,0.5,0.4,0.5c0.2,0,0.3-0.1,0.4-0.5l2-9.3
				c0.1-0.3,0.3-0.5,0.5-0.5h3.1c0.2,0,0.4,0.2,0.4,0.4C146.3,224.8,146.3,224.9,146.3,224.9z"/>
			<path fill="#00AACC" d="M159.3,232.4h-7.6v0c0,1.3,0.6,2.6,2.4,2.6c1.5,0,3.6-0.1,4.5-0.2c0,0,0,0,0.1,0c0.3,0,0.4,0.1,0.4,0.4
				v1.8c0,0.4-0.1,0.5-0.5,0.6c-1.5,0.4-2.8,0.6-4.9,0.6c-2.9,0-5.9-1.5-5.9-6.1v-1.7c0-3.8,2.2-6.2,6-6.2c3.9,0,5.8,2.7,5.8,6.2
				v1.4C159.8,232.1,159.6,232.4,159.3,232.4z M156.1,229.9c0-1.8-0.8-2.6-2.1-2.6c-1.3,0-2.2,0.9-2.2,2.6v0.1L156.1,229.9
				L156.1,229.9z"/>
			<path fill="#00AACC" d="M166.1,237.9h-2.9c-0.3,0-0.5-0.2-0.5-0.5v-17.2c0-0.3,0.2-0.5,0.5-0.5h2.9c0.3,0,0.4,0.2,0.4,0.5v17.2
				C166.6,237.7,166.4,237.9,166.1,237.9z"/>
			<path fill="#00AACC" d="M180.4,237.5c-1.4,0.3-3.2,0.6-5,0.6c-3.8,0-5.9-2.2-5.9-6.1v-1.8c0-3.7,1.9-6.1,5.9-6.1
				c0.5,0,1.3,0.1,1.9,0.2v-4.1c0-0.3,0.2-0.5,0.5-0.5h2.9c0.3,0,0.5,0.2,0.5,0.5v16.6C181.2,237.2,181.1,237.4,180.4,237.5z
				 M177.3,227.5c-0.6-0.1-1.4-0.1-1.9-0.1c-1.7,0-2.1,1.2-2.1,2.9v1.8c0,1.7,0.4,2.9,2.1,2.9c0.8,0,1.5-0.1,1.9-0.1V227.5z"/>
			<path fill="#00AACC" d="M195.5,232.4h-7.6v0c0,1.3,0.6,2.6,2.4,2.6c1.5,0,3.6-0.1,4.5-0.2c0,0,0,0,0.1,0c0.3,0,0.4,0.1,0.4,0.4
				v1.8c0,0.4-0.1,0.5-0.5,0.6c-1.5,0.4-2.8,0.6-4.9,0.6c-2.9,0-5.9-1.5-5.9-6.1v-1.7c0-3.8,2.2-6.2,6-6.2c3.9,0,5.8,2.7,5.8,6.2
				v1.4C196,232.1,195.8,232.4,195.5,232.4z M192.2,229.9c0-1.8-0.8-2.6-2.1-2.6c-1.3,0-2.2,0.9-2.2,2.6v0.1L192.2,229.9
				L192.2,229.9z"/>
		</g>
		<g>
			<path fill="#00AACC" d="M209.8,237.9h-1.1c-0.3,0-0.5-0.2-0.5-0.5v-7.8c0-2.4-1-3.1-2.5-3.1c-0.7,0-2.2,0.2-3.3,0.7v10.2
				c0,0.2-0.2,0.5-0.5,0.5h-1.2c-0.2,0-0.5-0.2-0.5-0.5v-16.9c0-0.3,0.2-0.5,0.5-0.5h1.2c0.3,0,0.4,0.2,0.4,0.5v4.9
				c1.1-0.5,2.6-0.7,3.6-0.7c2.5,0,4.3,1.4,4.3,4.9v7.8C210.2,237.7,210,237.9,209.8,237.9z"/>
			<path fill="#00AACC" d="M218.2,238.1c-3.5,0-5.3-2.3-5.3-5.8v-1.8c0-3.5,1.8-5.8,5.3-5.8c3.5,0,5.3,2.3,5.3,5.8v1.8
				C223.5,235.8,221.7,238.1,218.2,238.1z M221.4,230.5c0-2.4-1-4-3.2-4c-2.2,0-3.2,1.5-3.2,4v1.8c0,2.4,0.9,4,3.2,4
				c2.2,0,3.2-1.5,3.2-4V230.5z"/>
			<path fill="#00AACC" d="M236.7,226.5l-0.9,0.2c0.4,0.4,0.8,1.2,0.8,2.4v0.2c0,2.6-1.6,4-5.3,4c-1.3,0-2.1-0.2-2.7-0.5
				c-0.4,0.2-0.6,0.5-0.6,0.8c0,0.4,0.2,0.6,0.7,0.8l3.5,0.9c2.3,0.6,4.5,1.3,4.5,3.5v0.2c0,2.3-1.5,3.7-5.4,3.7
				c-3.7,0-5.4-1.4-5.4-3.8v-0.2c0-1.3,0.7-2.4,1.5-3l-0.2-0.1c-0.8-0.3-1.1-1.1-1.1-1.8v0c0-0.6,0.3-1.3,1-1.7
				c-0.7-0.7-1.1-1.5-1.1-2.7v-0.2c0-2.1,1.2-4.2,5.3-4.2h5.2c0.3,0,0.5,0.2,0.5,0.5v0.6C237.1,226.4,237,226.5,236.7,226.5z
				 M234.8,238.8c0-0.9-0.8-1.3-2.9-1.8l-2.7-0.7c-0.7,0.6-1.2,1.2-1.2,2.4v0.2c0,1.3,0.8,2.2,3.4,2.2c2.7,0,3.3-0.8,3.3-2.1V238.8z
				 M234.6,229.1c0-1.4-0.6-2.5-3.2-2.5c-2.7,0-3.2,1.2-3.2,2.5v0.2c0,1,0.5,2.4,3.2,2.4c2.6,0,3.2-1,3.2-2.4V229.1z"/>
			<path fill="#00AACC" d="M249.2,232.1h-7.9v0.3c0,2.8,1.1,3.9,3.3,3.9c1.4,0,3.1-0.1,4.2-0.3c0,0,0.1,0,0.1,0
				c0.2,0,0.4,0.1,0.4,0.3v0.8c0,0.3-0.1,0.5-0.5,0.5c-1.3,0.3-2.7,0.4-4.2,0.4c-2.7,0-5.4-1.3-5.4-5.7v-2.1c0-3.4,1.9-5.5,5.3-5.5
				c3.5,0,5.2,2.2,5.2,5.5v1.3C249.6,231.9,249.5,232.1,249.2,232.1z M247.5,230.3c0-2.7-1-3.7-3.1-3.7c-2,0-3.2,1.2-3.2,3.7v0.2
				h6.3V230.3z"/>
			<path fill="#00AACC" d="M256.3,238.1c-0.9,0-2.6-0.1-3.7-0.4c-0.3-0.1-0.5-0.2-0.5-0.5v-0.8c0-0.2,0.2-0.4,0.4-0.4
				c0,0,0.1,0,0.1,0c1.1,0.1,2.9,0.3,3.7,0.3c1.5,0,2.3-0.4,2.3-1.7c0-0.7-0.4-1.2-1.8-2l-2.4-1.4c-1.4-0.9-2.4-1.9-2.4-3.4
				c0-2.5,1.8-3.1,4.3-3.1c1.3,0,2.6,0.1,3.7,0.3c0.3,0,0.4,0.2,0.4,0.5v0.8c0,0.3-0.2,0.4-0.4,0.4c0,0,0,0-0.1,0
				c-0.8-0.1-2.3-0.2-3.7-0.2c-1.3,0-2.2,0.2-2.2,1.4c0,0.7,0.5,1.2,1.6,1.8l2.3,1.4c2,1.2,2.6,2.2,2.6,3.6
				C260.7,237.1,258.9,238.1,256.3,238.1z"/>
			<path fill="#00AACC" d="M271.1,237.9c-0.8,0.1-1.8,0.3-3,0.3c-3.2,0-5-2.3-5-5.8v-1.8c0-3.5,1.8-5.8,5-5.8c1.1,0,2.2,0.1,3,0.3
				c0.4,0.1,0.5,0.2,0.5,0.5v0.9c0,0.2-0.2,0.4-0.4,0.4c0,0-0.1,0-0.1,0c-1-0.1-1.8-0.2-2.9-0.2c-1.9,0-3,1.3-3,3.9v1.8
				c0,2.7,1,3.9,3,3.9c1.2,0,1.9,0,2.9-0.2c0,0,0,0,0.1,0c0.2,0,0.4,0.1,0.4,0.4v0.9C271.6,237.6,271.5,237.8,271.1,237.9z"/>
			<path fill="#00AACC" d="M283.7,237.9h-1.1c-0.3,0-0.5-0.2-0.5-0.5v-7.8c0-2.4-1-3.1-2.5-3.1c-0.7,0-2.2,0.2-3.3,0.7v10.2
				c0,0.2-0.2,0.5-0.5,0.5h-1.2c-0.2,0-0.4-0.2-0.4-0.5v-16.9c0-0.3,0.2-0.5,0.4-0.5h1.2c0.3,0,0.4,0.2,0.4,0.5v4.9
				c1.1-0.5,2.6-0.7,3.6-0.7c2.5,0,4.3,1.4,4.3,4.9v7.8C284.2,237.7,284,237.9,283.7,237.9z"/>
			<path fill="#00AACC" d="M291.9,238.1c-3.5,0-5.3-2.3-5.3-5.8v-1.8c0-3.5,1.8-5.8,5.3-5.8s5.3,2.3,5.3,5.8v1.8
				C297.2,235.8,295.4,238.1,291.9,238.1z M295.1,230.5c0-2.4-1-4-3.2-4c-2.2,0-3.2,1.5-3.2,4v1.8c0,2.4,0.9,4,3.2,4
				c2.2,0,3.2-1.5,3.2-4V230.5z"/>
			<path fill="#00AACC" d="M304.8,238.1c-3.5,0-5.3-2.3-5.3-5.8v-1.8c0-3.5,1.8-5.8,5.3-5.8c3.5,0,5.3,2.3,5.3,5.8v1.8
				C310,235.8,308.2,238.1,304.8,238.1z M308,230.5c0-2.4-1-4-3.2-4c-2.2,0-3.2,1.5-3.2,4v1.8c0,2.4,0.9,4,3.2,4
				c2.2,0,3.2-1.5,3.2-4V230.5z"/>
			<path fill="#00AACC" d="M314.1,237.9h-1.2c-0.2,0-0.4-0.2-0.4-0.5v-16.9c0-0.2,0.2-0.5,0.4-0.5h1.2c0.2,0,0.4,0.2,0.4,0.5v16.9
				C314.6,237.7,314.4,237.9,314.1,237.9z"/>
		</g>
	</g>
</g>
</svg>
